[gd_scene load_steps=18 format=2]

[ext_resource path="res://Level.gd" type="Script" id=1]
[ext_resource path="res://LevelTileMap/LevelTileMap.gd" type="Script" id=2]
[ext_resource path="res://TileSet.tres" type="TileSet" id=3]
[ext_resource path="res://Camera/Camera.tscn" type="PackedScene" id=4]
[ext_resource path="res://GUI/GUI.tscn" type="PackedScene" id=5]
[ext_resource path="res://Flag/Flag.tscn" type="PackedScene" id=6]
[ext_resource path="res://Player/Player.tscn" type="PackedScene" id=7]
[ext_resource path="res://BackgroundLayer/BackgroundLayer.tscn" type="PackedScene" id=8]
[ext_resource path="res://Dice/DiceResource.gd" type="Script" id=9]
[ext_resource path="res://Interactable/Hole/Hole.tscn" type="PackedScene" id=10]
[ext_resource path="res://Interactable/Water/Water.tscn" type="PackedScene" id=11]
[ext_resource path="res://Spikes/Spikes.tscn" type="PackedScene" id=12]
[ext_resource path="res://Items/Key/Key.tscn" type="PackedScene" id=13]
[ext_resource path="res://Interactable/Door/Door.tscn" type="PackedScene" id=14]

[sub_resource type="Resource" id=1]
script = ExtResource( 9 )
element = -1
side = 7

[sub_resource type="Resource" id=2]
script = ExtResource( 9 )
element = -1
side = 7

[sub_resource type="Resource" id=3]
script = ExtResource( 9 )
element = 0
side = 1

[node name="Level" type="Node2D"]
script = ExtResource( 1 )
next_level = "res://Levels/Level9.tscn"
dices = [ SubResource( 1 ), SubResource( 2 ), SubResource( 3 ) ]

[node name="BackgroundLayer" parent="." instance=ExtResource( 8 )]

[node name="Player" parent="." instance=ExtResource( 7 )]
position = Vector2( 248, 200 )

[node name="DiceCollection" parent="." instance=ExtResource( 5 )]

[node name="LevelTileMap" type="TileMap" parent="."]
z_index = -1
tile_set = ExtResource( 3 )
cell_size = Vector2( 16, 16 )
show_collision = true
format = 1
tile_data = PoolIntArray( 524302, 3, 0, 524303, 3, 0, 524304, 3, 0, 524305, 3, 0, 524306, 3, 0, 589838, 3, 0, 589839, 0, 0, 589840, 0, 0, 589841, 0, 0, 589842, 3, 0, 589843, 3, 0, 589844, 3, 0, 589845, 3, 0, 589846, 3, 0, 655374, 3, 0, 655375, 0, 0, 655376, 0, 0, 655377, 0, 0, 655378, 0, 0, 655379, 3, 0, 655380, 0, 0, 655381, 0, 0, 655382, 3, 0, 720910, 3, 0, 720911, 3, 0, 720912, 3, 0, 720913, 0, 0, 720914, 3, 0, 720915, 3, 0, 720916, 0, 0, 720917, 0, 0, 720918, 3, 0, 786446, 3, 0, 786447, 0, 0, 786448, 0, 0, 786450, 0, 0, 786451, 0, 0, 786452, 0, 0, 786453, 0, 0, 786454, 3, 0, 851982, 3, 0, 851983, 3, 0, 851984, 3, 0, 851985, 0, 0, 851986, 3, 0, 851987, 3, 0, 851988, 0, 0, 851989, 3, 0, 851990, 3, 0, 917520, 3, 0, 917521, 0, 0, 917522, 3, 0, 917523, 3, 0, 917524, 0, 0, 917525, 3, 0, 983054, 3, 0, 983055, 3, 0, 983056, 3, 0, 983057, 0, 0, 983058, 3, 0, 983059, 3, 0, 983060, 3, 0, 983061, 3, 0, 983062, 3, 0, 983063, 3, 0, 1048590, 3, 0, 1048591, 0, 0, 1048592, 0, 0, 1048593, 0, 0, 1048594, 3, 0, 1048597, 3, 0, 1048598, 0, 0, 1048599, 3, 0, 1114126, 3, 0, 1114127, 0, 0, 1114128, 0, 0, 1114129, 0, 0, 1114130, 3, 0, 1114133, 3, 0, 1114134, 0, 0, 1114135, 3, 0, 1179662, 3, 0, 1179663, 3, 0, 1179664, 3, 0, 1179665, 0, 0, 1179666, 3, 0, 1179669, 3, 0, 1179670, 0, 0, 1179671, 3, 0, 1245200, 3, 0, 1245201, 0, 0, 1245202, 3, 0, 1245203, 3, 0, 1245204, 3, 0, 1245205, 3, 0, 1245206, 0, 0, 1245207, 3, 0, 1245208, 3, 0, 1245209, 3, 0, 1245210, 3, 0, 1245211, 3, 0, 1310736, 3, 0, 1310737, 0, 0, 1310738, 0, 0, 1310739, 0, 0, 1310740, 0, 0, 1310741, 0, 0, 1310742, 0, 0, 1310743, 0, 0, 1310744, 0, 0, 1310745, 0, 0, 1310746, 0, 0, 1310747, 3, 0, 1376272, 3, 0, 1376273, 3, 0, 1376274, 3, 0, 1376275, 3, 0, 1376276, 3, 0, 1376277, 3, 0, 1376278, 3, 0, 1376279, 3, 0, 1376280, 3, 0, 1376281, 3, 0, 1376282, 3, 0, 1376283, 3, 0 )
script = ExtResource( 2 )

[node name="Camera" parent="." instance=ExtResource( 4 )]
position = Vector2( 288, 201 )
zoom = Vector2( 0.4, 0.4 )

[node name="Flag" parent="." instance=ExtResource( 6 )]
position = Vector2( 360, 264 )

[node name="Hole" parent="." instance=ExtResource( 10 )]
position = Vector2( 280, 200 )

[node name="Water" parent="." instance=ExtResource( 11 )]
position = Vector2( 328, 184 )
is_frozen = true

[node name="Water2" parent="." instance=ExtResource( 11 )]
position = Vector2( 264, 168 )
is_frozen = true

[node name="Spikes" parent="." instance=ExtResource( 12 )]
position = Vector2( 296, 200 )

[node name="Spikes5" parent="." instance=ExtResource( 12 )]
position = Vector2( 328, 216 )

[node name="Spikes2" parent="." instance=ExtResource( 12 )]
position = Vector2( 280, 184 )

[node name="Spikes6" parent="." instance=ExtResource( 12 )]
position = Vector2( 296, 168 )
activated = false

[node name="Spikes3" parent="." instance=ExtResource( 12 )]
position = Vector2( 280, 216 )

[node name="Spikes4" parent="." instance=ExtResource( 12 )]
position = Vector2( 264, 200 )

[node name="Key" parent="." instance=ExtResource( 13 )]
position = Vector2( 328, 232 )

[node name="Key2" parent="." instance=ExtResource( 13 )]
position = Vector2( 296, 168 )
color = 2

[node name="Key3" parent="." instance=ExtResource( 13 )]
position = Vector2( 280, 264 )
color = 1

[node name="Door" parent="." instance=ExtResource( 14 )]
position = Vector2( 360, 280 )
color = 1

[node name="Door2" parent="." instance=ExtResource( 14 )]
position = Vector2( 360, 296 )
color = 2

[node name="Door3" parent="." instance=ExtResource( 14 )]
position = Vector2( 360, 312 )

[node name="Water3" parent="." instance=ExtResource( 11 )]
position = Vector2( 328, 328 )
is_frozen = true

[node name="Water6" parent="." instance=ExtResource( 11 )]
position = Vector2( 344, 328 )
is_frozen = true

[node name="Water7" parent="." instance=ExtResource( 11 )]
position = Vector2( 360, 328 )
is_frozen = true

[node name="Water8" parent="." instance=ExtResource( 11 )]
position = Vector2( 376, 328 )
is_frozen = true

[node name="Water9" parent="." instance=ExtResource( 11 )]
position = Vector2( 392, 328 )
is_frozen = true

[node name="Water10" parent="." instance=ExtResource( 11 )]
position = Vector2( 408, 328 )
is_frozen = true

[node name="Water11" parent="." instance=ExtResource( 11 )]
position = Vector2( 424, 328 )
is_frozen = true

[node name="Water4" parent="." instance=ExtResource( 11 )]
position = Vector2( 312, 328 )
is_frozen = true

[node name="Water5" parent="." instance=ExtResource( 11 )]
position = Vector2( 296, 328 )
is_frozen = true
