[gd_scene load_steps=17 format=2]

[ext_resource path="res://BackgroundLayer/BackgroundLayer.tscn" type="PackedScene" id=1]
[ext_resource path="res://Player/Player.tscn" type="PackedScene" id=2]
[ext_resource path="res://Interactable/Water/Water.tscn" type="PackedScene" id=3]
[ext_resource path="res://Camera/Camera.tscn" type="PackedScene" id=4]
[ext_resource path="res://Flag/Flag.tscn" type="PackedScene" id=5]
[ext_resource path="res://GUI/GUI.tscn" type="PackedScene" id=6]
[ext_resource path="res://TileSet.tres" type="TileSet" id=7]
[ext_resource path="res://Dice/DiceResource.gd" type="Script" id=8]
[ext_resource path="res://Level.gd" type="Script" id=9]
[ext_resource path="res://LevelTileMap/LevelTileMap.gd" type="Script" id=10]
[ext_resource path="res://Interactable/Wood/Wood.tscn" type="PackedScene" id=11]
[ext_resource path="res://Interactable/Door/Door.tscn" type="PackedScene" id=12]
[ext_resource path="res://Items/Key/Key.tscn" type="PackedScene" id=13]
[ext_resource path="res://Spikes/Spikes.tscn" type="PackedScene" id=14]

[sub_resource type="Resource" id=1]
script = ExtResource( 8 )
element = 0
side = 2

[sub_resource type="Resource" id=2]
script = ExtResource( 8 )
element = -1
side = 7

[node name="Level" type="Node2D"]
script = ExtResource( 9 )
next_level = "res://Levels/Level7.tscn"
dices = [ SubResource( 1 ), SubResource( 2 ) ]

[node name="BackgroundLayer" parent="." instance=ExtResource( 1 )]

[node name="Player" parent="." instance=ExtResource( 2 )]
position = Vector2( 200, 200 )

[node name="DiceCollection" parent="." instance=ExtResource( 6 )]

[node name="LevelTileMap" type="TileMap" parent="."]
z_index = -1
tile_set = ExtResource( 7 )
cell_size = Vector2( 16, 16 )
show_collision = true
format = 1
tile_data = PoolIntArray( 196625, 3, 0, 196626, 3, 0, 196627, 3, 0, 196628, 3, 0, 262161, 3, 0, 262162, 0, 0, 262163, 0, 0, 262164, 3, 0, 327692, 3, 0, 327693, 3, 0, 327694, 3, 0, 327695, 3, 0, 327696, 3, 0, 327697, 3, 0, 327698, 0, 0, 327699, 0, 0, 327700, 3, 0, 393226, 3, 0, 393227, 3, 0, 393228, 3, 0, 393229, 0, 0, 393230, 0, 0, 393231, 0, 0, 393232, 0, 0, 393233, 0, 0, 393234, 0, 0, 393235, 0, 0, 393236, 3, 0, 458760, 3, 0, 458761, 3, 0, 458762, 3, 0, 458763, 0, 0, 458764, 0, 0, 458765, 0, 0, 458766, 3, 0, 458767, 3, 0, 458768, 3, 0, 458769, 3, 0, 458770, 0, 0, 458771, 3, 0, 458772, 3, 0, 458773, 3, 0, 524296, 3, 0, 524297, 1073741824, 0, 524298, 0, 0, 524299, 0, 0, 524300, 0, 0, 524301, 0, 0, 524302, 0, 0, 524303, 0, 0, 524304, 0, 0, 524305, 0, 0, 524306, 0, 0, 524307, 0, 0, 524308, 0, 0, 524309, 3, 0, 589832, 3, 0, 589833, 3, 0, 589834, 0, 0, 589835, 0, 0, 589836, 0, 0, 589837, 3, 0, 589838, 3, 0, 589839, 3, 0, 589840, 3, 0, 589841, 3, 0, 589842, 0, 0, 589843, 0, 0, 589844, 0, 0, 589845, 3, 0, 655369, 3, 0, 655370, 0, 0, 655371, 0, 0, 655372, 0, 0, 655373, 3, 0, 655374, 3, 0, 655375, 3, 0, 655376, 3, 0, 655377, 3, 0, 655378, 0, 0, 655379, 0, 0, 655380, 0, 0, 655381, 3, 0, 720905, 3, 0, 720906, 0, 0, 720907, 0, 0, 720908, 0, 0, 720909, 3, 0, 720910, 0, 0, 720911, 0, 0, 720912, 0, 0, 720913, 0, 0, 720914, 0, 0, 720915, 0, 0, 720916, 0, 0, 720917, 3, 0, 786441, 3, 0, 786442, 3, 0, 786443, 3, 0, 786444, 0, 0, 786445, 3, 0, 786446, 3, 0, 786447, 3, 0, 786448, 3, 0, 786449, 3, 0, 786450, 3, 0, 786451, 3, 0, 786452, 3, 0, 786453, 3, 0, 851979, 3, 0, 851980, 3, 0, 851981, 3, 0 )
script = ExtResource( 10 )

[node name="Camera" parent="." instance=ExtResource( 4 )]
position = Vector2( 256, 144 )

[node name="Flag" parent="." instance=ExtResource( 5 )]
position = Vector2( 152, 136 )

[node name="Door" parent="." instance=ExtResource( 12 )]
position = Vector2( 168, 136 )
color = 2

[node name="Water" parent="." instance=ExtResource( 3 )]
position = Vector2( 184, 136 )
is_frozen = true

[node name="Water2" parent="." instance=ExtResource( 3 )]
position = Vector2( 200, 136 )
is_frozen = true

[node name="Water9" parent="." instance=ExtResource( 3 )]
position = Vector2( 168, 168 )
is_frozen = true

[node name="Water3" parent="." instance=ExtResource( 3 )]
position = Vector2( 216, 136 )
is_frozen = true

[node name="Water4" parent="." instance=ExtResource( 3 )]
position = Vector2( 232, 136 )
is_frozen = true

[node name="Water5" parent="." instance=ExtResource( 3 )]
position = Vector2( 248, 136 )
is_frozen = true

[node name="Water6" parent="." instance=ExtResource( 3 )]
position = Vector2( 264, 136 )
is_frozen = true

[node name="Water10" parent="." instance=ExtResource( 3 )]
position = Vector2( 296, 88 )
is_frozen = true

[node name="Water7" parent="." instance=ExtResource( 3 )]
position = Vector2( 280, 136 )
is_frozen = true

[node name="Water8" parent="." instance=ExtResource( 3 )]
position = Vector2( 296, 136 )
is_frozen = true

[node name="Water11" parent="." instance=ExtResource( 3 )]
position = Vector2( 312, 184 )
is_frozen = true

[node name="Door2" parent="." instance=ExtResource( 12 )]
position = Vector2( 200, 152 )

[node name="Wood" parent="." instance=ExtResource( 11 )]
position = Vector2( 184, 152 )

[node name="Wood3" parent="." instance=ExtResource( 11 )]
position = Vector2( 184, 168 )

[node name="Wood4" parent="." instance=ExtResource( 11 )]
position = Vector2( 168, 168 )

[node name="Key" parent="." instance=ExtResource( 13 )]
position = Vector2( 168, 152 )

[node name="Spikes" parent="." instance=ExtResource( 14 )]
position = Vector2( 200, 120 )

[node name="Spikes4" parent="." instance=ExtResource( 14 )]
position = Vector2( 184, 120 )

[node name="Spikes2" parent="." instance=ExtResource( 14 )]
position = Vector2( 296, 152 )

[node name="Spikes3" parent="." instance=ExtResource( 14 )]
position = Vector2( 312, 136 )
activated = false

[node name="Key2" parent="." instance=ExtResource( 13 )]
position = Vector2( 232, 184 )
color = 2
