[gd_scene load_steps=18 format=2]

[ext_resource path="res://Dice/DiceResource.gd" type="Script" id=1]
[ext_resource path="res://Level.gd" type="Script" id=2]
[ext_resource path="res://LevelTileMap/LevelTileMap.gd" type="Script" id=3]
[ext_resource path="res://TileSet.tres" type="TileSet" id=4]
[ext_resource path="res://Camera/Camera.tscn" type="PackedScene" id=5]
[ext_resource path="res://GUI/GUI.tscn" type="PackedScene" id=6]
[ext_resource path="res://Flag/Flag.tscn" type="PackedScene" id=7]
[ext_resource path="res://Player/Player.tscn" type="PackedScene" id=8]
[ext_resource path="res://Interactable/Water/Water.tscn" type="PackedScene" id=9]
[ext_resource path="res://Interactable/Door/Door.tscn" type="PackedScene" id=10]
[ext_resource path="res://BackgroundLayer/BackgroundLayer.tscn" type="PackedScene" id=11]
[ext_resource path="res://Items/Key/Key.tscn" type="PackedScene" id=12]
[ext_resource path="res://Spikes/Spikes.tscn" type="PackedScene" id=13]
[ext_resource path="res://Interactable/Hole/Hole.tscn" type="PackedScene" id=14]

[sub_resource type="Resource" id=3]
script = ExtResource( 1 )
element = -1
side = 7

[sub_resource type="Resource" id=4]
script = ExtResource( 1 )
element = 0
side = 1

[sub_resource type="Resource" id=5]
script = ExtResource( 1 )
element = -1
side = 1

[node name="Level" type="Node2D"]
script = ExtResource( 2 )
next_level = "res://Ending/Ending.tscn"
dices = [ SubResource( 3 ), SubResource( 4 ), SubResource( 5 ) ]

[node name="BackgroundLayer" parent="." instance=ExtResource( 11 )]

[node name="Player" parent="." instance=ExtResource( 8 )]
position = Vector2( 232, 200 )

[node name="DiceCollection" parent="." instance=ExtResource( 6 )]

[node name="LevelTileMap" type="TileMap" parent="."]
z_index = -1
tile_set = ExtResource( 4 )
cell_size = Vector2( 16, 16 )
show_collision = true
format = 1
tile_data = PoolIntArray( 393238, 3, 0, 393239, 3, 0, 393240, 3, 0, 393241, 3, 0, 458773, 3, 0, 458774, 3, 0, 458775, 0, 0, 458776, 0, 0, 458777, 3, 0, 458778, 3, 0, 524309, 3, 0, 524310, 0, 0, 524311, 3, 0, 524312, 3, 0, 524313, 0, 0, 524314, 3, 0, 589845, 3, 0, 589847, 3, 0, 589848, 3, 0, 589849, 0, 0, 589850, 3, 0, 655374, 3, 0, 655375, 3, 0, 655376, 3, 0, 655381, 3, 0, 655383, 3, 0, 655384, 3, 0, 655385, 0, 0, 655386, 3, 0, 720909, 3, 0, 720910, 3, 0, 720911, 0, 0, 720912, 3, 0, 720913, 3, 0, 720914, 3, 0, 720915, 3, 0, 720916, 3, 0, 720917, 3, 0, 720918, 0, 0, 720919, 3, 0, 720920, 3, 0, 720921, 0, 0, 720922, 3, 0, 720923, 3, 0, 720924, 3, 0, 720925, 3, 0, 720926, 3, 0, 720927, 3, 0, 720928, 3, 0, 720929, 3, 0, 786445, 3, 0, 786446, 0, 0, 786447, 0, 0, 786448, 0, 0, 786449, 0, 0, 786450, 0, 0, 786451, 0, 0, 786452, 0, 0, 786453, 0, 0, 786455, 0, 0, 786456, 0, 0, 786457, 0, 0, 786458, 0, 0, 786459, 0, 0, 786461, 0, 0, 786462, 0, 0, 786463, 0, 0, 786464, 0, 0, 786465, 3, 0, 851981, 3, 0, 851982, 3, 0, 851983, 0, 0, 851984, 3, 0, 851985, 0, 0, 851986, 3, 0, 851987, 3, 0, 851988, 3, 0, 851989, 3, 0, 851990, 0, 0, 851991, 3, 0, 851992, 3, 0, 851993, 0, 0, 851994, 3, 0, 851995, 0, 0, 851996, 3, 0, 851997, 3, 0, 851998, 3, 0, 851999, 3, 0, 852000, 3, 0, 852001, 3, 0, 917517, 3, 0, 917518, 3, 0, 917519, 3, 0, 917520, 3, 0, 917521, 3, 0, 917522, 0, 0, 917523, 3, 0, 917524, 3, 0, 917525, 3, 0, 917526, 0, 0, 917527, 3, 0, 917528, 3, 0, 917529, 0, 0, 917530, 3, 0, 917531, 0, 0, 917532, 3, 0, 983057, 3, 0, 983058, 3, 0, 983060, 3, 0, 983061, 3, 0, 983062, 0, 0, 983063, 3, 0, 983064, 3, 0, 983065, 0, 0, 983066, 3, 0, 983067, 0, 0, 983068, 3, 0, 1048594, 3, 0, 1048595, 3, 0, 1048597, 3, 0, 1048598, 0, 0, 1048599, 3, 0, 1048600, 3, 0, 1048601, 0, 0, 1048602, 3, 0, 1048603, 0, 0, 1048604, 3, 0, 1114131, 3, 0, 1114132, 3, 0, 1114133, 0, 0, 1114134, 3, 0, 1114135, 3, 0, 1114136, 3, 0, 1114137, 0, 0, 1114138, 0, 0, 1114139, 3, 0, 1114140, 3, 0, 1179668, 3, 0, 1179669, 3, 0, 1179670, 3, 0, 1179671, 3, 0, 1179672, 3, 0, 1179673, 0, 0, 1179674, 3, 0, 1179675, 3, 0, 1245207, 3, 0, 1245208, 0, 0, 1245209, 0, 0, 1245210, 3, 0, 1310743, 3, 0, 1310744, 3, 0, 1310745, 0, 0, 1310746, 3, 0, 1376280, 3, 0, 1376281, 3, 0, 1376282, 3, 0 )
script = ExtResource( 3 )

[node name="Camera" parent="." instance=ExtResource( 5 )]
position = Vector2( 448, 201 )
zoom = Vector2( 0.4, 0.4 )

[node name="Flag" parent="." instance=ExtResource( 7 )]
position = Vector2( 520, 200 )

[node name="Door" parent="." instance=ExtResource( 10 )]
position = Vector2( 504, 200 )
color = 1

[node name="Door2" parent="." instance=ExtResource( 10 )]
position = Vector2( 488, 200 )
color = 2

[node name="Door3" parent="." instance=ExtResource( 10 )]
position = Vector2( 472, 200 )

[node name="Spikes" parent="." instance=ExtResource( 13 )]
position = Vector2( 248, 200 )
activated = false

[node name="Spikes2" parent="." instance=ExtResource( 13 )]
position = Vector2( 264, 200 )
activated = false

[node name="Spikes3" parent="." instance=ExtResource( 13 )]
position = Vector2( 280, 216 )

[node name="Spikes4" parent="." instance=ExtResource( 13 )]
position = Vector2( 280, 200 )

[node name="Spikes5" parent="." instance=ExtResource( 13 )]
position = Vector2( 296, 200 )

[node name="Spikes6" parent="." instance=ExtResource( 13 )]
position = Vector2( 312, 200 )

[node name="Spikes7" parent="." instance=ExtResource( 13 )]
position = Vector2( 328, 200 )

[node name="Spikes8" parent="." instance=ExtResource( 13 )]
position = Vector2( 344, 200 )

[node name="Spikes9" parent="." instance=ExtResource( 13 )]
position = Vector2( 376, 200 )

[node name="Spikes10" parent="." instance=ExtResource( 13 )]
position = Vector2( 392, 200 )

[node name="Spikes11" parent="." instance=ExtResource( 13 )]
position = Vector2( 424, 200 )
activated = false

[node name="Spikes12" parent="." instance=ExtResource( 13 )]
position = Vector2( 440, 200 )
activated = false

[node name="Water" parent="." instance=ExtResource( 9 )]
position = Vector2( 296, 232 )
is_frozen = true

[node name="Water2" parent="." instance=ExtResource( 9 )]
position = Vector2( 312, 248 )
is_frozen = true

[node name="Water10" parent="." instance=ExtResource( 9 )]
position = Vector2( 360, 168 )
is_frozen = true

[node name="Water11" parent="." instance=ExtResource( 9 )]
position = Vector2( 360, 152 )
is_frozen = true

[node name="Water15" parent="." instance=ExtResource( 9 )]
position = Vector2( 408, 152 )
is_frozen = true

[node name="Water16" parent="." instance=ExtResource( 9 )]
position = Vector2( 408, 168 )
is_frozen = true

[node name="Water17" parent="." instance=ExtResource( 9 )]
position = Vector2( 408, 184 )
is_frozen = true

[node name="Water18" parent="." instance=ExtResource( 9 )]
position = Vector2( 408, 200 )
is_frozen = true

[node name="Water19" parent="." instance=ExtResource( 9 )]
position = Vector2( 408, 216 )
is_frozen = true

[node name="Water20" parent="." instance=ExtResource( 9 )]
position = Vector2( 408, 232 )
is_frozen = true

[node name="Water21" parent="." instance=ExtResource( 9 )]
position = Vector2( 408, 248 )
is_frozen = true

[node name="Water22" parent="." instance=ExtResource( 9 )]
position = Vector2( 408, 264 )
is_frozen = true

[node name="Water23" parent="." instance=ExtResource( 9 )]
position = Vector2( 408, 280 )
is_frozen = true

[node name="Water24" parent="." instance=ExtResource( 9 )]
position = Vector2( 408, 296 )
is_frozen = true

[node name="Water25" parent="." instance=ExtResource( 9 )]
position = Vector2( 408, 312 )
is_frozen = true

[node name="Water27" parent="." instance=ExtResource( 9 )]
position = Vector2( 424, 280 )
is_frozen = true

[node name="Water26" parent="." instance=ExtResource( 9 )]
position = Vector2( 408, 328 )
is_frozen = true

[node name="Water5" parent="." instance=ExtResource( 9 )]
position = Vector2( 360, 232 )
is_frozen = true

[node name="Water6" parent="." instance=ExtResource( 9 )]
position = Vector2( 360, 248 )
is_frozen = true

[node name="Water3" parent="." instance=ExtResource( 9 )]
position = Vector2( 328, 264 )
is_frozen = true

[node name="Key" parent="." instance=ExtResource( 12 )]
position = Vector2( 360, 264 )

[node name="Hole" parent="." instance=ExtResource( 14 )]
position = Vector2( 360, 200 )

[node name="Key2" parent="." instance=ExtResource( 12 )]
position = Vector2( 376, 120 )
color = 2

[node name="Hole2" parent="." instance=ExtResource( 14 )]
position = Vector2( 456, 200 )

[node name="Key3" parent="." instance=ExtResource( 12 )]
position = Vector2( 392, 312 )
color = 1
