[gd_scene load_steps=9 format=2]

[ext_resource path="res://Dice/dice_1.png" type="Texture" id=1]
[ext_resource path="res://Dice/Fire_element.png" type="Texture" id=2]
[ext_resource path="res://Dice/DiceTextureRect.gd" type="Script" id=7]

[sub_resource type="Animation" id=1]
length = 0.001
tracks/0/type = "value"
tracks/0/path = NodePath(".:modulate")
tracks/0/interp = 1
tracks/0/loop_wrap = true
tracks/0/imported = false
tracks/0/enabled = true
tracks/0/keys = {
"times": PoolRealArray( 0 ),
"transitions": PoolRealArray( 1 ),
"update": 0,
"values": [ Color( 1, 1, 1, 1 ) ]
}
tracks/1/type = "value"
tracks/1/path = NodePath("ColorRect:rect_size")
tracks/1/interp = 1
tracks/1/loop_wrap = true
tracks/1/imported = false
tracks/1/enabled = true
tracks/1/keys = {
"times": PoolRealArray( 0 ),
"transitions": PoolRealArray( 1 ),
"update": 0,
"values": [ Vector2( 64, 64 ) ]
}
tracks/2/type = "value"
tracks/2/path = NodePath("ColorRect:rect_scale")
tracks/2/interp = 1
tracks/2/loop_wrap = true
tracks/2/imported = false
tracks/2/enabled = true
tracks/2/keys = {
"times": PoolRealArray( 0 ),
"transitions": PoolRealArray( 1 ),
"update": 0,
"values": [ Vector2( 1, 1 ) ]
}
tracks/3/type = "value"
tracks/3/path = NodePath(".:rect_scale")
tracks/3/interp = 1
tracks/3/loop_wrap = true
tracks/3/imported = false
tracks/3/enabled = true
tracks/3/keys = {
"times": PoolRealArray( 0 ),
"transitions": PoolRealArray( 1 ),
"update": 0,
"values": [ Vector2( 1, 1 ) ]
}
tracks/4/type = "value"
tracks/4/path = NodePath(".:rect_rotation")
tracks/4/interp = 1
tracks/4/loop_wrap = true
tracks/4/imported = false
tracks/4/enabled = true
tracks/4/keys = {
"times": PoolRealArray( 0 ),
"transitions": PoolRealArray( 1 ),
"update": 0,
"values": [ 0.0 ]
}
tracks/5/type = "value"
tracks/5/path = NodePath(".:rect_pivot_offset")
tracks/5/interp = 1
tracks/5/loop_wrap = true
tracks/5/imported = false
tracks/5/enabled = true
tracks/5/keys = {
"times": PoolRealArray( 0 ),
"transitions": PoolRealArray( 1 ),
"update": 0,
"values": [ Vector2( 32, 32 ) ]
}

[sub_resource type="Animation" id=4]
resource_name = "destroy"
length = 0.2
tracks/0/type = "value"
tracks/0/path = NodePath(".:rect_scale")
tracks/0/interp = 2
tracks/0/loop_wrap = true
tracks/0/imported = false
tracks/0/enabled = true
tracks/0/keys = {
"times": PoolRealArray( 0, 0.2 ),
"transitions": PoolRealArray( 1, 1 ),
"update": 0,
"values": [ Vector2( 1, 1 ), Vector2( 0, 0 ) ]
}
tracks/1/type = "value"
tracks/1/path = NodePath(".:rect_rotation")
tracks/1/interp = 2
tracks/1/loop_wrap = true
tracks/1/imported = false
tracks/1/enabled = true
tracks/1/keys = {
"times": PoolRealArray( 0, 0.2 ),
"transitions": PoolRealArray( 1, 1 ),
"update": 0,
"values": [ 0.0, 180.0 ]
}
tracks/2/type = "value"
tracks/2/path = NodePath(".:rect_pivot_offset")
tracks/2/interp = 2
tracks/2/loop_wrap = true
tracks/2/imported = false
tracks/2/enabled = true
tracks/2/keys = {
"times": PoolRealArray( 0 ),
"transitions": PoolRealArray( 1 ),
"update": 0,
"values": [ Vector2( 32, 32 ) ]
}

[sub_resource type="Animation" id=2]
resource_name = "hover"
length = 0.6
tracks/0/type = "value"
tracks/0/path = NodePath(".:modulate")
tracks/0/interp = 1
tracks/0/loop_wrap = true
tracks/0/imported = false
tracks/0/enabled = true
tracks/0/keys = {
"times": PoolRealArray( 0, 0.2, 0.4, 0.6 ),
"transitions": PoolRealArray( 1, 0, -2, 1 ),
"update": 0,
"values": [ Color( 1, 1, 1, 1 ), Color( 1, 1, 1, 0.705882 ), Color( 1, 1, 1, 0.705882 ), Color( 1, 1, 1, 1 ) ]
}
tracks/1/type = "value"
tracks/1/path = NodePath("ColorRect:rect_scale")
tracks/1/interp = 2
tracks/1/loop_wrap = true
tracks/1/imported = false
tracks/1/enabled = true
tracks/1/keys = {
"times": PoolRealArray( 0, 0.2, 0.4, 0.6 ),
"transitions": PoolRealArray( -2, 0, -2, -2 ),
"update": 0,
"values": [ Vector2( 1, 1 ), Vector2( 1.25, 1.25 ), Vector2( 1.25, 1.25 ), Vector2( 1, 1 ) ]
}

[sub_resource type="Animation" id=5]
resource_name = "spawn"
length = 0.2
tracks/0/type = "value"
tracks/0/path = NodePath(".:rect_scale")
tracks/0/interp = 2
tracks/0/loop_wrap = true
tracks/0/imported = false
tracks/0/enabled = true
tracks/0/keys = {
"times": PoolRealArray( 0, 0.2 ),
"transitions": PoolRealArray( -2, -2 ),
"update": 0,
"values": [ Vector2( 0, 0 ), Vector2( 1, 1 ) ]
}
tracks/1/type = "value"
tracks/1/path = NodePath(".:rect_rotation")
tracks/1/interp = 2
tracks/1/loop_wrap = true
tracks/1/imported = false
tracks/1/enabled = true
tracks/1/keys = {
"times": PoolRealArray( 0, 0.2 ),
"transitions": PoolRealArray( -2, -2 ),
"update": 0,
"values": [ 360.0, 0.0 ]
}

[sub_resource type="StyleBoxFlat" id=3]
bg_color = Color( 0.6, 0.6, 0.6, 0 )
border_width_left = 3
border_width_top = 3
border_width_right = 3
border_width_bottom = 3
border_color = Color( 1, 1, 1, 1 )
anti_aliasing = false

[node name="DiceTexture" type="TextureRect"]
anchor_right = 1.0
anchor_bottom = 1.0
margin_right = -1216.0
margin_bottom = -656.0
rect_min_size = Vector2( 64, 64 )
rect_pivot_offset = Vector2( 32, 32 )
texture = ExtResource( 1 )
expand = true
script = ExtResource( 7 )

[node name="ElementTexture" type="TextureRect" parent="."]
margin_left = 48.0
margin_top = -24.0
margin_right = 88.0
margin_bottom = 16.0
rect_min_size = Vector2( 32, 32 )
texture = ExtResource( 2 )
expand = true

[node name="AnimationPlayer" type="AnimationPlayer" parent="."]
playback_speed = 0.5
anims/RESET = SubResource( 1 )
anims/destroy = SubResource( 4 )
anims/hover = SubResource( 2 )
anims/spawn = SubResource( 5 )

[node name="ColorRect" type="Panel" parent="."]
show_behind_parent = true
margin_right = 64.0
margin_bottom = 64.0
rect_min_size = Vector2( 64, 64 )
rect_pivot_offset = Vector2( 32, 32 )
mouse_filter = 2
custom_styles/panel = SubResource( 3 )

[connection signal="gui_input" from="." to="." method="_on_DiceTexture_gui_input"]
[connection signal="mouse_entered" from="." to="." method="_on_DiceTexture_mouse_entered"]
[connection signal="mouse_exited" from="." to="." method="_on_DiceTexture_mouse_exited"]
[connection signal="animation_finished" from="AnimationPlayer" to="." method="_on_AnimationPlayer_animation_finished"]
